*** Life<FredkinCell> 6x6 ***

Generation = 0, Population = 5.
------
------
------
---000
---0--
---0--

Generation = 1, Population = 10.
------
------
---000
--0--1
--0--0
--010-

Generation = 2, Population = 10.
------
---000
---1--
-01---
-0---1
-0--1-

Generation = 3, Population = 16.
---000
--0--1
-0-2-0
0-2--1
0-----
0101--

*** Life<FredkinCell> 11x11 ***

Generation = 0, Population = 10.
-----------
-----------
-0000000000
-----------
-----------
-----------
-----------
-----------
-----------
-----------
-----------

Generation = 2, Population = 24.
-0000000000
-----------
120------0-
-----------
-0000000000
-----------
-----------
-----------
-----------
-----------
-----------

Generation = 4, Population = 24.
-2000000002
-----------
--210--0---
-----------
-----------
-----------
-0000000000
-----------
-----------
-----------
-----------

*** Life<FredkinCell> 11x11 ***

Generation = 0, Population = 25.
-----------
-----------
-----------
-----------
-----------
-----00000-
-----0-----
-----00000-
-----00000-
-----00000-
-----0000--

Generation = 1, Population = 26.
-----------
-----------
-----------
-----------
-----00000-
----0----10
----0-0----
----01111-0
----01---10
----01----0
----0-11---

Generation = 2, Population = 39.
-----------
-----------
-----------
-----00000-
-----1-----
---01--0--1
---0-01-00-
---0122-201
---012-0-21
---01--0--1
---010220-0

Generation = 3, Population = 38.
-----------
-----------
-----00000-
----0----10
---0-2--000
--0-20-----
--0----0--0
--012--1---
--01--010-2
--0121-----
--0-2--31-1

*** Life<FredkinCell> 21x20 ***

Generation = 0, Population = 25.
--------------------
--------------------
--------------------
--------------------
--------------------
--------------------
--------------------
--------------------
--------------------
--------------------
--------------------
--------------------
-------000----------
-------000----------
-------000----------
-------000----------
-------000----------
-------000----------
-------000----------
-------000----------
-------0------------

Generation = 2, Population = 53.
--------------------
--------------------
--------------------
--------------------
--------------------
--------------------
--------------------
--------------------
--------------------
--------------------
-------000----------
-------111----------
-----01-2-10--------
-----01-0-10--------
-----012-210--------
-----012-210--------
-----012-210--------
-----012-210--------
-----0120-10--------
-----01-2-10--------
-----0--0-----------

Generation = 4, Population = 81.
--------------------
--------------------
--------------------
--------------------
--------------------
--------------------
--------------------
--------------------
-------000----------
-------111----------
-------020----------
-------111----------
---010-121-010------
---012-222-210------
---012-212-210------
---012-404-210------
---012--04-210------
---012-412-210------
---012--02-210------
---012-----010------
---0-------1--------

*** Life<FredkinCell> 4x3 ***

Generation = 0, Population = 2.
---
-0-
---
-0-

Generation = 2, Population = 1.
---
-0-
---
---

Generation = 4, Population = 1.
---
---
---
-0-

*** Life<FredkinCell> 5x5 ***

Generation = 0, Population = 4.
-----
-00--
-00--
-----
-----

Generation = 3, Population = 8.
-22-0
2----
2----
----0
0--0-

Generation = 6, Population = 10.
--31-
-----
3--22
1-2-1
--21-

*** Life<FredkinCell> 10x10 ***

Generation = 0, Population = 18.
00--0-----
00-------0
--00----0-
---0------
---0------
----00----
----------
-------00-
-------0--
-0-------0

Generation = 2, Population = 33.
-01-0-0-0-
0-0----0-0
---0-00---
0---1----0
-012-1--0-
--0---1-0-
---0---1--
-0--0-1---
-----0---1
-0-0----1-

Generation = 4, Population = 32.
02--00----
0-2--1-0-0
-0----200-
--------0-
02--1-----
-0------21
--00----0-
-0--0---1-
-------1-1
-0--11--1-

*** Life<FredkinCell> 6x6 ***

Generation = 0, Population = 6.
------
------
--000-
--000-
------
------

Generation = 2, Population = 22.
--000-
--111-
010-01
010-01
--111-
--000-

Generation = 4, Population = 10.
--020-
------
----21
----21
------
--020-

Generation = 6, Population = 16.
01-22-
----21
----21
----21
----21
01-22-

*** Life<FredkinCell> 6x6 ***

Generation = 0, Population = 10.
------
-00000
-0---0
---0--
--0-0-
------

Generation = 2, Population = 19.
-1---1
10000-
--0-02
--000-
010-01
---0--

Generation = 4, Population = 15.
-30-01
-22--1
---0-4
-----1
--0---
-10-01

Generation = 6, Population = 19.
13-0-1
3---0-
---014
---123
1--112
13---3

Generation = 8, Population = 22.
--0-2-
5--122
--101-
--2325
31--34
-51115

Generation = 10, Population = 20.
2-014-
533-24
----3-
---52-
5-2256
1-1-3-

*** Life<FredkinCell> 7x7 ***

Generation = 0, Population = 20.
0------
-000000
-0----0
---0---
--0--0-
-0----0
-000000

Generation = 3, Population = 21.
-------
-1--010
2-1-213
02-1-00
-01-0--
----2-3
--1-1--

Generation = 6, Population = 24.
1020-2-
-2-2-4-
3--23--
-2---0-
--42--0
-3-2-1-
-2-0402
