*** Life<FredkinCell> 9x12 ***

Generation = 0, Population = 9.
------0-----
------0-----
------0-----
------0-----
------0-----
------0-----
------0-----
------0-----
------0-----

Generation = 22, Population = 34.
9---8-2-3---
----0---0-0-
2---4-4-3---
0---0-0-0---
0---0-0-0---
0---0-0-0---
2---4-4-3---
----0---0-0-
9---8-2-3---

*** Life<FredkinCell> 5x5 ***

Generation = 0, Population = 10.
00000
-----
-----
-----
00000

Generation = 100, Population = 6.
2-0-2
-----
-----
-----
2-0-2

*** Life<FredkinCell> 6x6 ***

Generation = 0, Population = 9.
---0--
-0-0--
-00-0-
---0--
-0--0-
------

Generation = 117, Population = 12.
-+--+-
-+-+--
+-----
0+----
--+--+
--0+-+

*** Life<FredkinCell> 5x6 ***

Generation = 0, Population = 9.
0-----
-0---0
--0--0
---0-0
----00

Generation = 34, Population = 13.
-6-635
---+-+
---47+
-4----
+3--7-

*** Life<FredkinCell> 5x10 ***

Generation = 0, Population = 10.
-0---00000
000-------
-0--------
----------
----------

Generation = 3, Population = 21.
--0-210---
--32--0-0-
-3-101---1
1-1--00000
-1--------

*** Life<FredkinCell> 7x7 ***

Generation = 0, Population = 10.
-------
-----0-
--000--
0---0--
-000-0-
-------
-------

Generation = 80, Population = 0.
-------
-------
-------
-------
-------
-------
-------

*** Life<FredkinCell> 8x7 ***

Generation = 0, Population = 8.
------0
---0--0
0------
00-----
-------
-----0-
----0--
-------

Generation = 123, Population = 25.
+------
-+--+-+
+-+---+
-+-+-++
---0+0+
-+---+-
+0+--0+
-+++---

*** Life<FredkinCell> 6x6 ***

Generation = 0, Population = 12.
0----0
-0--0-
--00--
--00--
-0--0-
0----0

Generation = 20, Population = 0.
------
------
------
------
------
------

*** Life<FredkinCell> 5x5 ***

Generation = 0, Population = 16.
00000
0---0
0---0
0---0
00000

Generation = 16, Population = 4.
--0--
-----
0---0
-----
--0--
