10

10 9
12
7 4
6 2
4 0
5 5
6 8
1 4
0 6
5 6
6 0
7 5
6 3
4 1
10 5

3 4
12
0 1
1 2
2 1
0 0
1 1
0 3
2 0
2 3
0 2
2 2
1 0
1 3
6 2

7 9
12
4 4
6 2
3 1
3 7
3 2
6 7
3 3
5 0
2 6
4 8
0 8
3 5
5 5

3 10
12
1 2
0 4
0 0
1 1
0 3
1 8
0 9
2 9
0 2
2 6
2 2
1 9
5 3

7 7
12
1 2
6 1
5 4
4 6
4 2
0 6
3 3
2 6
5 0
6 0
1 0
1 6
8 3

8 6
12
5 5
3 4
2 1
0 3
7 0
3 2
1 4
5 1
4 5
7 2
7 5
5 2
6 2

6 10
12
0 1
1 2
4 0
2 7
0 0
1 5
3 7
5 4
1 4
3 0
1 7
1 6
6 4

7 8
12
1 3
2 4
2 7
0 3
5 7
0 6
3 3
5 0
6 0
1 0
1 6
4 1
8 5

2 10
12
0 1
0 7
0 4
0 0
0 9
1 7
0 2
0 5
1 0
0 8
1 3
1 9
10 2

3 4
12
0 1
1 2
2 1
0 0
1 1
0 3
2 0
2 3
0 2
2 2
1 0
1 3
8 2
