*** Life<Cell> 15x13 ***

Generation = 0, Population = 12.
-----------0-
-------------
--------0----
-------------
--0--------0-
-------------
---0---------
-------0-----
---------0---
-------------
---------0---
-------------
-----------0-
-----0-------
-0-----0-----

Generation = 1, Population = 43.
----------0-0
--------0--0-
-------0-0---
--0-----0--0-
-0-0------0-0
--00-------0-
--0-0--0-----
---0--0-00---
-------00-0--
-------------
--------0-0--
---------0-0-
-----0----0-0
-0--0-00---0-
0-0--00-0----

Generation = 2, Population = 37.
--------00-0-
-------------
--0---0---0--
-------------
0--10---00---
-------0-----
-01--0---0-0-
-----0---1---
---0---1-0-0-
-------0-----
-------0-0---
-----0-------
-0-----0-----
---0---1-----
-0-0-1-0-0-0-

Generation = 3, Population = 98.
-------011--0
--0---0-0000-
-0-0-0-0-0-0-
0-000-0-000--
-00*10--110--
0000000----0-
01*0010001--0
-00001000-0--
--0-000*-1--0
---0--0-0--0-
-----001--0--
-0--0-0--0---
0-00-0010----
--01000-00-0-
0--1---1----0

Generation = 4, Population = 35.
--0----1*----
-------------
---10------10
-------0-----
0--.--00-*---
-------------
--.----11*---
---1-------0-
--1--1-.-----
-----0-------
-0-0-1-*-----
-------0-----
-0-------0-0-
-0---1---1---
-0-*-1---0---

Generation = 5, Population = 92.
-0-0--0*.1---
--000--00--00
--0*10-0--0*1
0--00--100-00
-0-.-01--.0--
0-----0-0----
--.0--0*-.00-
----01-0010-0
-0--0*0.---0-
-0000-00-----
0----*-.0----
---0-00100-0-
010--0-101--0
0-010*0-0-00-
01-.-*0-010--

Generation = 6, Population = 51.
0-01-01*.-000
-------11----
00-.-1--0-1.*
-----0---1---
0-0.-1---.--0
---0---0-0-0-
0-.----.1.-1-
-0-----------
01--1.-.01---
-------1---0-
--0--.0.1--0-
-0---1-*-----
---0-------0-
-----.-1---1-
-*-*-.-------

Generation = 7, Population = 87.
--1*-1-**11-1
-000-----0-0-
110.1*0-10-..
-00-0-0------
---.1*10-.---
----000-0--1-
--.0---.-.0*0
010-0----1-0-
1-10-.-.1*00-
000-0---00010
---0-.-.-0010
0--00-0*-----
-10-00----010
-0---.0-0-0*0
0.-.0.-1---0-

*** Life<Cell> 10x14 ***

Generation = 0, Population = 9.
-----0--------
--------0-----
---0----------
--0----0---0-0
--------------
--------------
--------------
--------------
-----------0--
0-------------

Generation = 2, Population = 24.
-----0-0------
--0---01--00-0
-0------------
0---00--1--0--
---0----------
--0----0---0-0
-----------0--
0-------------
---------0---0
--0-----------

Generation = 4, Population = 29.
-0-0-----0----
----0---1---0-
-----1-1------
0--0--11-1---0
-----1-----0--
0-------1-----
---0----------
0-0----0---1-1
-------0---0-0
--0-0---------

*** Life<Cell> 12x12 ***

Generation = 0, Population = 13.
-------0----
------------
-0----------
----0-------
--0---------
-----0---00-
------------
------------
----0-------
---0----000-
------------
-----------0

Generation = 2, Population = 37.
-0---0-0-0--
----0-------
--10---0----
--1--10--00-
01--1-------
---01---1--1
--0-0-------
---0-0--0---
--0---0-----
-0---001*-*-
----0-------
---0----0-1-

Generation = 4, Population = 34.
-010-------0
-----0---10-
-1---1-0----
1-*--.--1---
*.--.-10----
-1-*.10-1--1
-1----------
----1------0
0-0---------
----0-*-.-.-
--------0---
---0---10-1-

Generation = 6, Population = 71.
1*1-1--0-1--
0-11-----.-0
0111-.0--1-0
*1.1-**-1*-0
*.1-*0-*10--
0.0..*01-**-
-.11--10----
-111110-00--
-00-0-------
--11--*-*0*0
0-0---1-*-1-
-0-01--*-0--

*** Life<Cell> 10x13 ***

Generation = 0, Population = 12.
-------------
---------0---
--------00---
0-0----------
0------------
-------------
---------0---
-----0-0-0-0-
----0--------
-------------

Generation = 3, Population = 64.
0-0-----1*00-
1--0---1-1-10
*0--001-1-*-0
-01--000---0-
.--000---0-0-
--10---10--10
100--00*010-0
0---0--0-1010
-0---0--0*0--
--0-0-0--1--0

*** Life<Cell> 12x12 ***

Generation = 0, Population = 8.
--0---------
----------0-
------0-----
--0----0----
------------
---------0--
----------0-
------------
-0----------
------------
------------
------------

*** Life<Cell> 14x11 ***

Generation = 0, Population = 13.
--0----0---
----------0
---0-------
-----------
-------0-0-
-----0-----
----------0
---------0-
0----------
-----------
--------0--
-----------
-------0---
----------0

Generation = 1, Population = 39.
-0-0--0-0-0
--00---0-0-
--0-0-----0
---0---0-0-
-----00---0
----0-00-00
-----0-----
0-------0--
-0-------0-
0-------0--
-------0-0-
-------00--
------0-0-0
-------0-0-

*** Life<Cell> 14x10 ***

Generation = 0, Population = 13.
----------
---0--0---
------0---
0---------
--------0-
--------0-
--------0-
----------
----------
---------0
----------
-----0----
---0-----0
-0----0---

Generation = 4, Population = 40.
------1-1-
--11-*110-
--1-----0-
--*-0---*-
----0--1.1
---00-*--0
----0-*-.-
0----0--.-
---0----*1
-0---0001-
--------1-
---.--.--1
---0-.---*
-*0.-*---0

*** Life<Cell> 14x8 ***

Generation = 0, Population = 14.
00------
-------0
--------
----0-0-
------0-
-----0--
-0------
---00---
--------
-------0
-0------
--------
-0------
--0-----

*** Life<Cell> 15x12 ***

Generation = 0, Population = 10.
------------
0-----------
------------
-----0------
------------
----------00
----------0-
------------
--0---------
---0--------
------------
------------
--0---0-----
------------
---------0--
