*** Life<FredkinCell> 14x16 ***

Generation = 0, Population = 2.
----------------
----------------
----------------
----------------
----------------
----------------
--------------0-
----------------
----------------
----------------
----------------
----------------
-------------0--
----------------

*** Life<FredkinCell> 5x16 ***

Generation = 0, Population = 5.
-00-------------
----------------
-0-------------0
-0--------------
----------------

*** Life<FredkinCell> 1x10 ***

Generation = 0, Population = 4.
00-0--0---

*** Life<FredkinCell> 13x5 ***

Generation = 0, Population = 4.
----0
-----
-----
-----
-----
---0-
-----
-----
-0---
0----
-----
-----
-----

Generation = 36, Population = 13.
536--
+--0-
-----
-----
-----
---0-
----6
-----
-6--4
8-+-5
-2---
-----
-----

*** Life<FredkinCell> 17x12 ***

Generation = 0, Population = 6.
--------0---
------------
------------
--------0---
------------
------------
----------0-
------------
------------
------------
------------
---0--------
----0------0
------------
------------
------------
------------

Generation = 3, Population = 50.
-----0--1--0
------00-00-
------00200-
-----0-00010
------0-0010
-------0100-
-------010--
--------0-0-
---0-----0-0
--0-------00
-0--------0-
0--------0--
-------00---
------0--0--
-----0----0-
----0------0
------------

Generation = 6, Population = 56.
--0-0-0-1-0-
----1-------
----1-0---1-
--0---0-----
--------1-1-
---00---2---
--------2--1
-0---01---1-
--0------0-1
---0---00---
0---0--1-1-1
-----0---1--
0-0--011-2-0
---0---1----
0---0--000-0
-0---0------
--0-0-0--0--

Generation = 9, Population = 56.
-0-----0---0
0-------1-0-
0--0--------
-00--------0
0----0----1-
--0-1-0-2--0
-0-0-0---0--
--0---2-----
-------0-0--
--------1---
---0----0--1
---101-1-10-
-01---1-1--0
--0000----00
-----0---111
--0-------00
---0--------

Generation = 12, Population = 58.
--0-1-0---00
------------
1-1---1---3-
--3-0--0----
-------1421-
------------
2-0-0-1---2-
1-------2--1
--00-0-----1
------------
--2-0-0-3-21
---11----4--
21----2113--
------------
0-----20041-
-------01--0
--0100----22

Generation = 15, Population = 122.
-01-2---1-1-
-01--001---0
1--0-0-1----
----12210---
---0312253--
--213002400-
-01101226233
-0100140222-
0-1-110131--
-003-0004-0-
-2231-13-2-2
0-1215--1-2-
-2-20---23-2
-0011--2-10-
0--1-13-3-2-
---003101023
0-1--10---32

Generation = 18, Population = 63.
--1---0-1--1
3--0--1-----
2-2------1-2
126-13--0---
1---3-------
3-----0-----
3-1------244
-0---1------
0-------3--3
---3-0--4--0
-2-31-----4-
---3--23-631
-315-24-3---
-----0-----1
-1-10-3-6-2-
------1---2-
------0---3-

Generation = 21, Population = 104.
---------132
4-----21100-
-0-03032-23-
--622433--2-
-0-041---342
3-2---02-000
40---1-36--7
---202614--4
----211-41--
00-41-0-5-01
---42---525-
03-42-2--742
5-15---3-3-2
00--11-21-0-
---23--1-4-3
-0---51---2-
0----1-0-0-2

Generation = 24, Population = 45.
------3-2--5
------------
--51-3------
-----4----2-
-1-1-------3
------------
5--3-4------
---3----5--7
2-2-----7---
------------
----5---5--3
-6---62----3
--45-2--54-5
------------
-2-53---6--3
1--0-6-----4
0-------1-4-

Generation = 27, Population = 97.
-02---3-23-5
4-112--21-20
-0--56-4-24-
-3-3-------0
3--2-3325-44
40-2--1-6034
-2-40-26--4-
---414--6458
--3--43-+3--
1----1--60-3
-23-52-3----
--1-36-7----
6---------3-
1-----14-10-
13---243-4-4
--2-1-2-2--7
--2322-0--43

Generation = 30, Population = 97.
--31433---5-
-0-2--2-2030
336-5--7----
-4-63674-22-
--2-----55--
---33---7---
-51---3-7-5+
--242-92-7--
4-433-4---16
210-3-2170-4
--3-63--6394
--4-463-5+7-
------6-7748
---22-244-0-
1-0---4-8-37
-0---65-3---
--2-----2---

Generation = 33, Population = 55.
-1-2-----5-7
--1-----3---
--7----8--54
-5-7-----252
--2----2-54-
----4-------
-----4-8+4--
--3-2--387-9
-----6--+-2-
----3-----04
-3---------4
--5--7-86-8-
----4---8--9
1----2-4--0-
---5--------
--4--------7
-----3----6-

Generation = 36, Population = 48.
0-----------
------------
--+---4-5---
2--8----1-5-
--3-------56
------------
5---0-------
-04-3--4-76-
-----7---65-
------------
----9-1-7-+-
-7------7--5
-6784-6--+69
------------
----6-----5+
-0-2---1-1--
-----4--417-

Generation = 39, Population = 96.
0--2-3--357-
-1--2--2----
--+---5--35-
3-98579-42-2
-2--7-5-575-
----6-13-14-
-6-51--8+--+
---7-6----6-
62555-72-6-9
2-----22---5
1-3995--83+6
1---474---+8
9--9--6-++6-
1-----3-64-3
16-6-54---6-
31--2-----2-
-22---3-5-+-

Generation = 42, Population = 110.
--6-4---45+-
-1--3-3--0--
----78897-65
--996-+45--2
--32-56268--
60--6-1-91-4
7-351-49+--+
6-6---+--87+
72-869-2+7--
2125-2-2+105
14-++6-----9
28--5---9+-9
--79556--+-9
--15-3-57-14
26--8--58---
---3--51-52-
-2--464--3--

Generation = 45, Population = 99.
-1-27-5-7-+8
5-2-31--4141
--+3-8-+----
3-++-7--6--3
5--2787-795-
61--72---14-
---5257--5-+
--7967+-9-8+
------9--+8+
3-----22--05
----+-1-+4--
-9--58-+-+--
+78--69---6-
-----435--2-
59---84---8+
3---495-5--9
-264----56+-

Generation = 48, Population = 62.
0-----6----8
------------
4----98+--76
47-+8-+--4--
6-----+---6-
------------
-----589---+
71-+-8+-98-+
-2-+----+---
------------
4-------+--9
--69-8-++-+9
++-+---8++--
------------
--2-----+-8-
--5--+----4+
-5757---5-+-

Generation = 51, Population = 100.
11-4-662-9-9
62--4--2-261
--+----+----
-+---9-5+47-
7--2-8+3-+-8
6235+----247
---54-+++---
+-++-9----9-
+5---99----+
-4---3-5+41-
-68-+736--+-
3-7-6-5-++--
-+---8-9---+
-2-74-38-4--
5+-68+7---9+
62547-----5-
4-----4-66--

Generation = 54, Population = 100.
116-----+-+-
---44152-37-
---4+-9+--97
-++++-+--7-5
-43398--7+69
7245----+-4-
-------++---
-----+--9+9+
----9+---+-+
44---3-5---6
-6-+++-6+-+-
3-8----++++-
-----9----8-
12275-3--435
--479--7+-9+
7355-+5-9-6-
7--7----79+-

Generation = 57, Population = 108.
427---6-++++
--44-162-481
8---++++7-9-
--++++-----5
+---+++37---
8-------+--7
9+69---++-8+
-2---+-59-9-
+7--++--+-+-
-----346+417
49++-+49-5++
--8+-8-+-++-
++-----+-+8+
----5--8853-
-+-8+-78+---
-3---+6-9--+
--+--9618++-

Generation = 60, Population = 83.
-3759992-++-
------------
--+8++--8---
6-+--++-+8-6
--5--+-4-+8-
------------
--7+-6--+-8-
+2++8++5+-9+
+-5---+5---+
------------
-+-+-+-+-8+-
4-8+--9--+--
+-++89+-+--+
------------
--6--+89+7--
-467---2-7--
9-+---91--+4

Generation = 63, Population = 103.
7-85-9-5-++-
---56----6-2
+---+--+94+-
-+--+++7-9+-
----+------+
-4-8--26-5-8
9----7++---+
+-++8++--+++
+-6--+--++--
5-3--7-8---9
5-++++---9+-
5-----+++++-
++++8-+++--+
-3--6-4+9---
-+--+--+-8-+
876+-+-39-6+
+6--+---+++-

Generation = 66, Population = 64.
7-----9-+-+-
--557---5---
--+-------+8
6++-++----+-
+-----+-9+-+
--68+---+---
--7---+-+-9+
------------
+-6---+-+-+-
-------8+7--
-+----5-----
-----+++-+++
---+--+-+--+
---8---++6--
-+7------9-+
-7---+------
----+-----+5

Generation = 69, Population = 97.
---5-9-5--++
6----------2
-6-8+++-+--9
--++--+8----
----++-59+++
----+-26-55-
--+-67---7--
+---9++-+-++
+--+++-5--+-
553-5-6---2-
----+--+--++
5+-++-+----+
+++---++---+
333-674+-6--
-+-+-+9-++++
886-----+-6+
+-+-----+++8

Generation = 72, Population = 51.
7-9-+-+---+-
------------
----+------+
6------9+9+7
-864-++-9---
------------
+-+-9-+---++
---+--------
+-7-+---+-+-
------------
------------
6+8-+--+-+--
-----9--++--
------------
7+8+-+------
---+---5++-+
--------+---

Generation = 75, Population = 99.
8--5---5+---
---581-477-4
+-+--+--+6--
7----++++9+-
++--+++8+--+
+4-+--4-+87-
------++--+-
+4-+-+--+++-
+-8-+--5--+-
7-------+9-9
8++-+---+++-
-+9++-++-+-+
-+-+9---+-++
------4----6
-+-+++-++--+
--6+9-----9+
+9-+-+-2--+8

Generation = 78, Population = 99.
--98--+----+
--6--295-89-
-7+9++--+7-+
7--+-+---+-7
+--5++--++++
-4--+54-+8-+
+++++-----+-
+-++++--+-++
--------++-+
---6--6-++2-
9+-++--+++--
7+++--+++---
++-+9--+--++
4--+995++---
----+----+--
--9-+-9--+9-
----+-+---+9

*** Life<FredkinCell> 20x7 ***

Generation = 0, Population = 5.
-----0-
-------
-------
----0--
0------
-------
---0---
-------
-------
-------
-------
-------
-------
-------
-------
-------
-------
-0-----
-------
-------

*** Life<FredkinCell> 19x14 ***

Generation = 0, Population = 9.
--------------
--------------
--------------
--------------
-------------0
----------0---
00------------
--------------
0-----------0-
--------------
-------------0
--------------
--------------
--------------
----------0---
--0-----------
--------------
--------------
--------------

Generation = 2, Population = 30.
--------------
--------------
-------------0
----------0---
00---------0-0
--------0---0-
--10--------00
----------0---
-10-------0--1
--------------
0----------010
--------------
----------0--0
--0-----------
--------0---0-
0---0---------
----------0---
--0-----------
--------------

Generation = 4, Population = 33.
-------------0
----------0---
00------------
--------------
2--------0-01-
------0-------
-23-10-------2
--------------
--2-0---0---11
----------1---
01-------012--
--0-----------
0-----------1-
--------------
------0------1
0-----0-------
--------------
--------------
----------0---

Generation = 6, Population = 69.
00---------0--
--------0---0-
--10-----0-000
------0---0---
----00-0-002--
----1---0-----
------0000----
------0---1---
-----1---12---
--1-----1---1-
---00--0-2-42-
0---0-----1---
-11---0--0-1-1
1-0---1-------
1---0---0--011
0-0-0---0-----
------1---0--0
0-----0-------
--------0-0-0-

Generation = 8, Population = 30.
-2----------0-
----------0---
--------------
--------------
-----2-0------
--0-------1---
-----20-220---
--0-----------
----1-0-------
--------------
-----1-0------
--------------
-------------1
----------0---
110-------1---
--0-2-----1---
0---------0-1-
--------------
-------------1

Generation = 10, Population = 83.
-2-0------1-0-
--------0---2-
-1---0-0----1-
--0-----------
---0--001-2---
0-0-2---2---1-
---1-4-0--010-
0-0-1-----3---
--3-1--1-22---
--1-----------
---11100-2---1
----------1---
021--0-0--11-1
--2-0---0-2-0-
3-012---1-1--2
1-2-2-1-1-1-1-
-1------0---11
--0-0-----1---
0---------001-

Generation = 12, Population = 76.
-2-----01---2-
--0---0-------
-1---00-000-3-
--0-----------
---00-2--1-43-
0---------2---
-35-2-10-30-03
0-----1-------
1-3--2-10-2--2
--3-----------
1-03-10-0--5--
----2-----3---
2---0-1--1332-
------2-------
512-4--1-----2
--------1-----
--1-0-3-2---1-
----------3---
-11------1-03-

Generation = 14, Population = 79.
---0---2--1---
0-0-----0-----
-1-1---020--3-
--0-1-0---2---
-1----2--136--
------0-3---2-
----2---3--1--
----3---1-3---
325---1-------
------1---3---
-2-52-----253-
--------1---1-
23-1-0--135-4-
----------3---
7-41411-1-1--2
--------------
--1-0--041-113
------------0-
13-1--001-1--2

Generation = 16, Population = 27.
----------1---
--------------
--------------
--------------
-1-----------0
--0-3---------
1----------1-4
--2-----------
-27-------2-2-
----------5---
-2-----------2
--------------
-------------2
--------------
7-6-4-------2-
----------3-3-
02------------
----------4---
-------------2

Generation = 18, Population = 64.
--------2-1-2-
--------------
-1--------1--1
--0-1---------
3--1----------
1---3-1-------
1--------41114
2-4-------4---
-4-12---1-402-
--4-----1---3-
-216------354-
----------4---
341-1------36-
----------3-1-
71--4-2---3--3
--------2---5-
---00-------34
--------0-4---
24---------1--

Generation = 20, Population = 69.
-2----0------1
--0-0---------
2---------12-1
--0-----------
--0--2---2-74-
------1-4-4---
-57-4--1-6-1--
4-----2-------
4----3--3---2-
--6-1-2-------
-43-42---3--43
--0-------6-1-
5-3------3656-
--------------
-37-4-2-----4-
------2-2---7-
-32-21--------
------1---4---
-63-0----1-15-

Generation = 22, Population = 112.
22-01-0-2-1--1
1---0-2-------
22---10-3----1
1-2---1-0-4---
-222---0---9--
1-0-4-----4-3-
---1452146---5
6---------4---
6-82-33----123
--------3-6-3-
2---441-13-6-5
1-0---0-2-8-1-
--5-10202-856-
--2---4-1-5---
-591414-20-26-
----3---2-3---
2-4-4--1-2-2--
----0-1-0-----
4-510120--2-73

Generation = 24, Population = 67.
24---------131
--0-2-----1---
--------------
--------------
-------0-2---0
--2-6-----4-3-
1-836521483-1-
----5-------1-
84+--5--435---
--8-----------
-------1-5---5
--------------
-5---0-0------
--2-1-----7---
-7+---4---4484
----3---4---9-
24--433-422---
--0-----------
-7---1-2------

Generation = 26, Population = 100.
-601-----01-33
2-0-2-2-1---3-
33-----1-1-33-
------------0-
4-332-3-1-4-50
2-4---2-5-6---
1-83-5-1483116
--4-7-3-----3-
+--4-5-----3-4
1-----------4-
3-5--4--2-4--5
----3-----9---
-55--02---+56-
2-4---5-------
---25-424--4+-
--4-5-----3---
4-4-4351-----5
1-------1---1-
5---213-3-2---

*** Life<FredkinCell> 2x4 ***

Generation = 0, Population = 6.
000-
0-00

Generation = 11, Population = 3.
----
545-

*** Life<FredkinCell> 5x16 ***

Generation = 0, Population = 1.
----------------
----------------
----------------
-------------0--
----------------

*** Life<FredkinCell> 4x9 ***

Generation = 0, Population = 4.
---------
0--------
-------0-
---0--0--

Generation = 16, Population = 11.
-------6-
3-855-0--
---6-----
2-4----+6

Generation = 32, Population = 7.
-------+-
---9----7
---+-----
----1-5+-

Generation = 48, Population = 8.
-------+-
---+----+
---+-----
2-+----++

Generation = 64, Population = 11.
-------+-
+-+++-0--
---+-----
2-+----++

*** Life<FredkinCell> 14x10 ***

Generation = 0, Population = 10.
----------
-------0--
---000----
---0------
--------0-
----------
----------
-----0----
----------
-0--------
----------
--0-------
----------
--------0-

Generation = 39, Population = 75.
3+75-896-6
89+--5---+
-9977---96
6-6-3-2+-+
-++716--67
----8+---9
4356--791-
-----74-6-
--5-6----1
-+-5895---
5-7--8---5
-8-69+44--
4--8--6-76
9---7779+8

Generation = 78, Population = 69.
---++-++--
--+++--++-
+--+--++++
-+-+--+++-
-+------+-
+++-+++--+
-------+8+
--++----++
+--++-+7--
--+-----+-
++++-+++--
++-++--++-
+---++++++
---+++-+++

*** Life<FredkinCell> 10x10 ***

Generation = 0, Population = 6.
----------
----------
----------
-----0----
----------
-----0-0--
----------
----------
0---------
00--------

*** Life<FredkinCell> 20x16 ***

Generation = 0, Population = 9.
----------------
----------------
-----0-----0----
----------------
----------------
-------0--------
----------------
----------------
----------0-----
----------------
-----0----------
-----------0----
----------------
--------0-------
----------------
----------------
-0--------0-----
----------------
----------------
----------------

*** Life<FredkinCell> 8x2 ***

Generation = 0, Population = 1.
--
--
--
--
0-
--
--
--

*** Life<FredkinCell> 6x10 ***

Generation = 0, Population = 7.
-----0----
----------
-00-------
-0--------
---0------
--------00

Generation = 49, Population = 24.
+-+8+-+-8-
8-+--+----
+-4+----+-
-++---+---
-6---9+-+-
-+-7-+-+--

*** Life<FredkinCell> 5x7 ***

Generation = 0, Population = 3.
0------
------0
-------
-0-----
-------

*** Life<FredkinCell> 18x19 ***

Generation = 0, Population = 3.
-------------------
-------------------
-------------------
-------------------
-------------------
-------------------
------0------------
-------------------
-------------------
-----------------0-
-------------------
-------------------
----------------0--
-------------------
-------------------
-------------------
-------------------
-------------------

Generation = 19, Population = 63.
---------------0-0-
--------------0-0-0
-------------0-0---
--------0-----0-0--
-------0-0-----0-0-
--------0-0-------0
-0---0---0-0-0-0-0-
0-0---0---0-----0-0
-0-0---0-----0-----
0---0-0-0-----0-0--
-----0-0-----------
0-------0-----0----
-0---0---0-----0-0-
--0-------------0-0
-0-0-----0-------0-
0---0---0----------
-----0-0-----------
------0------------

Generation = 38, Population = 83.
--0-0-0-0-0-0-0-0--
-------------0---0-
0---0-0-0-0-0-0-0-0
---------0-0-0-----
0-0---0-0-0-0-0-0--
-------0-----0-0---
0-0-0-0---0-0------
-----0---------0-0-
0-0---0-0-----0----
---0---------------
0---0-0-0-------0--
-----0---------0-0-
--0-0-0---0-------0
-------0-----0-0---
--0-0-0-0---0-0---0
---------0-0-0---0-
----0-0-0-0-0---0--
-------------0-0---

Generation = 57, Population = 91.
-0---0-0-0-----0---
0-0-0---0-----0---0
-0-----0-----0-0---
0-----0-0-----0---0
-----0-0-----0-0---
0-0-0-0---0-0---0--
-0-------0-----0---
--0-0-0-0-----0----
-0---0-0-----0---0-
------0-0-0-0---0-0
-----0---0---0-0---
0---------0-0-----0
-------0-------0-0-
--0-0-----0-0-0-0-0
-------0-0-----0---
--0-0-0-0-0-0-0-0--
-0-----0-0-------0-
--0-0-0---0-0-0-0-0

*** Life<FredkinCell> 9x4 ***

Generation = 0, Population = 5.
--0-
----
----
----
-0--
0--0
--0-
----
----

Generation = 23, Population = 18.
---3
+5-9
-4--
-++-
0-8+
--+5
8-7-
1--0
0+--

Generation = 46, Population = 20.
+0--
++0+
+---
0+++
-0++
0--+
--+-
-+0-
-+--

*** Life<FredkinCell> 7x7 ***

Generation = 0, Population = 4.
----0--
----0--
-------
-------
0---0--
-------
-------

*** Life<FredkinCell> 8x10 ***

Generation = 0, Population = 9.
-0-0--0---
----------
---------0
0---------
--0-------
----------
0---0-----
---------0
