*** Life<ConwayCell> 18x17 ***

Generation = 0, Population = 5.
*................
.................
.................
.................
.................
..........**.....
.................
.................
.................
....*............
.*...............
.................
.................
.................
.................
.................
.................
.................

Generation = 22, Population = 0.
.................
.................
.................
.................
.................
.................
.................
.................
.................
.................
.................
.................
.................
.................
.................
.................
.................
.................

Generation = 44, Population = 0.
.................
.................
.................
.................
.................
.................
.................
.................
.................
.................
.................
.................
.................
.................
.................
.................
.................
.................

Generation = 66, Population = 0.
.................
.................
.................
.................
.................
.................
.................
.................
.................
.................
.................
.................
.................
.................
.................
.................
.................
.................

Generation = 88, Population = 0.
.................
.................
.................
.................
.................
.................
.................
.................
.................
.................
.................
.................
.................
.................
.................
.................
.................
.................

*** Life<ConwayCell> 12x17 ***

Generation = 0, Population = 8.
.........*......*
........*........
.................
.................
.......*.........
.................
.................
.................
.................
.........**......
.......*.........
........*........

*** Life<ConwayCell> 15x7 ***

Generation = 0, Population = 2.
....*..
.......
.......
.......
.......
.*.....
.......
.......
.......
.......
.......
.......
.......
.......
.......

*** Life<ConwayCell> 13x6 ***

Generation = 0, Population = 6.
......
.....*
.*....
......
......
......
...**.
...*..
......
......
......
....*.
......

*** Life<ConwayCell> 3x12 ***

Generation = 0, Population = 2.
............
.......**...
............

*** Life<ConwayCell> 13x4 ***

Generation = 0, Population = 1.
....
....
....
....
....
....
....
*...
....
....
....
....
....

Generation = 28, Population = 0.
....
....
....
....
....
....
....
....
....
....
....
....
....

*** Life<ConwayCell> 14x5 ***

Generation = 0, Population = 3.
.....
.....
.....
.....
.....
.....
..*..
.....
.....
*..*.
.....
.....
.....
.....

*** Life<ConwayCell> 13x6 ***

Generation = 0, Population = 6.
....*.
......
...*..
..*...
......
......
.*.*..
......
......
*.....
......
......
......

*** Life<ConwayCell> 4x7 ***

Generation = 0, Population = 6.
....*..
**....*
.....**
.......

Generation = 39, Population = 4.
.......
.....**
.....**
.......

Generation = 78, Population = 4.
.......
.....**
.....**
.......

*** Life<ConwayCell> 12x12 ***

Generation = 0, Population = 1.
............
............
............
............
............
............
............
............
............
....*.......
............
............

Generation = 68, Population = 0.
............
............
............
............
............
............
............
............
............
............
............
............

*** Life<ConwayCell> 19x10 ***

Generation = 0, Population = 4.
..........
..........
..........
..........
..........
..........
..........
.........*
..........
..........
..........
..........
..........
..........
..........
.....*..*.
..........
..........
....*.....

*** Life<ConwayCell> 3x12 ***

Generation = 0, Population = 1.
............
......*.....
............

*** Life<ConwayCell> 10x19 ***

Generation = 0, Population = 8.
...................
...................
...................
...................
..*.*............*.
.............*..*..
...................
...................
............*...*..
*..................

*** Life<ConwayCell> 19x5 ***

Generation = 0, Population = 2.
.....
.....
.....
....*
.....
.....
.....
.....
.....
.....
.....
.....
.....
.....
.....
.....
.....
....*
.....

*** Life<ConwayCell> 13x1 ***

Generation = 0, Population = 3.
.
.
.
*
.
.
.
.
.
*
*
.
.

*** Life<ConwayCell> 9x12 ***

Generation = 0, Population = 4.
............
....*.....*.
............
............
............
......*.....
............
......*.....
............

Generation = 40, Population = 0.
............
............
............
............
............
............
............
............
............

*** Life<ConwayCell> 4x3 ***

Generation = 0, Population = 4.
*..
...
*..
*.*

*** Life<ConwayCell> 1x19 ***

Generation = 0, Population = 5.
**..*.....*.*......

*** Life<ConwayCell> 6x17 ***

Generation = 0, Population = 4.
......*..........
.................
.*...............
...............*.
......*..........
.................

*** Life<ConwayCell> 13x19 ***

Generation = 0, Population = 3.
...................
................*..
...................
.........*.........
...................
...................
...................
...................
...................
...................
................*..
...................
...................
