7

1 1
1
0 0
3 1

2 1
2
0 0
1 0
3 1

10 10
10
0 0
1 1
2 2
3 3
4 4
5 5
6 6
7 7
8 8
9 9
20 5

5 15
30
0 0
0 1
0 2
0 3
0 4
0 5
0 6
0 7
0 8
0 9
0 10
0 11
0 12
0 13
0 14
4 0
4 1
4 2
4 3
4 4
4 5
4 6
4 7
4 8
4 9
4 10
4 11
4 12
4 13
4 14
50 10

5 5
25
0 0
0 1
0 2
0 3
0 4
1 0
1 1
1 2
1 3
1 4
2 0
2 1
2 2
2 3
2 4
3 0
3 1
3 2
3 3
3 4
4 0
4 1
4 2
4 3
4 4
20 5

5 5
20
0 0
0 1
0 2
0 3
1 0
1 2
1 3
1 4
2 0
2 2
2 3
2 4
3 0
3 1
3 3
3 4
4 1
4 2
4 3
4 4
20 5

1 40
24
0 1
0 3
0 4
0 5
0 7
0 8
0 9
0 11
0 13
0 14
0 15
0 17
0 19
0 20
0 23
0 24
0 25
0 26
0 27
0 29
0 30
0 31
0 34
0 37
8 4
