*** Life<Cell> 5x5 ***

Generation = 0, Population = 10.
0--0-
-0-0-
-00-0
-0-0-
----0

Generation = 1, Population = 14.
--010
-101-
011--
010-0
-0---

Generation = 2, Population = 6.
---*1
-----
--*-0
-----
-1--0

Generation = 3, Population = 10.
--0.*
--01-
-1.--
-10--
0-00-

Generation = 4, Population = 9.
-01..
---*-
0*.0-
-----
-1-10

Generation = 5, Population = 15.
01*..
0--*0
1.*10
0---0
0--*1

*** Life<Cell> 9x9 ***

Generation = 0, Population = 10.
----0----
-0------0
---0-----
---------
---------
0--0-----
--0-0----
--------0
--0------

Generation = 3, Population = 40.
-01*1-100
-0-*0-1--
-*00*1---
1-0*00-0-
-0-*1----
----0--0-
--0--010-
-00--01--
10-0--0-0

Generation = 6, Population = 39.
---*--*1*
*11..-.1*
1.-1.---1
1--*10-00
0-*..1-10
1**1.10*0
-0---1.--
-0---0.-*
.--0*-*--

*** Life<Cell> 10x10 ***

Generation = 0, Population = 8.
----------
---------0
----0-----
-----0---0
---------0
----0-----
----------
----------
------0---
----0-----

Generation = 2, Population = 22.
----0-----
-----0-0--
--0---0--0
---00-----
----1--0-*
--0--10--1
------0--0
----------
----1---0-
--0-0-1---

Generation = 4, Population = 29.
----0----0
----00-0-1
0-------1-
-0---1-1--
----.0000.
0---0*--1-
----0-----
----10---1
--1-.-1--1
0---*---1-

*** Life<Cell> 15x15 ***

Generation = 0, Population = 6.
---------------
---------------
---------------
-----0---------
-----0---------
---------------
-----0---0-----
---------------
-------0-------
---------------
-----0---------
---------------
---------------
---------------
---------------

Generation = 2, Population = 16.
---------------
-----0---------
-----1---------
---0---0-------
---0-*-0-0-----
-----0---------
---0-0-0---0---
---------------
-----0---------
---------------
---0-----------
---------------
-----0---------
---------------
---------------

Generation = 4, Population = 22.
-----1---------
---------------
-----.---0-----
-0---1---1-----
-0--0.0*-0-----
-----0---------
-0-------0---0-
-----0---------
---0-0-----0---
---------------
-0---0---------
---------------
-------0-------
---------------
-----0---------

*** Life<Cell> 5x7 ***

Generation = 0, Population = 9.
---0--0
--0--0-
-00----
----000
-------

Generation = 1, Population = 16.
----0--
--1-0--
01-00-0
-0001-1
----000

Generation = 2, Population = 16.
--0010-
0--0-00
1---1-1
---1*0-
-00----

Generation = 3, Population = 22.
0011---
10-1---
*1-0*-*
00-**1-
011-00-

Generation = 4, Population = 16.
-1--1--
*11---0
.*-1.0.
110..--
-**0--0

Generation = 5, Population = 14.
-*-1-00
*-*-0--
..--.-.
*--.*11
-..100-

*** Life<Cell> 13x6 ***

Generation = 0, Population = 9.
------
------
--0---
--0---
------
------
------
---0-0
----0-
-----0
--0---
---0--
-----0

Generation = 2, Population = 20.
--0---
--1---
0---0-
0---0-
--1---
--00-0
----0-
-0-0-0
------
---0--
0----1
-0----
--01--

Generation = 4, Population = 21.
--*---
--.---
*-----
*--1-1
--.-1-
-----0
------
-00--0
0---01
-0-0--
0----1
------
-0**1-

*** Life<Cell> 12x12 ***

Generation = 0, Population = 12.
-0----------
--0---------
------------
-----0--0---
---0--------
----0-------
----------0-
----------0-
----0-0-----
--0-0-------
------------
------------

Generation = 2, Population = 42.
-0-0--------
0---00--0---
-0-0--------
--011-11--0-
-0---1----0-
--0--10-0-1-
---01-0-0---
--0-----0---
--1-*-0-0-1-
0-0-*-1---0-
----1-0-----
--0-0-------

Generation = 4, Population = 40.
-0-0-1------
0-0-*-1-----
-0--------1-
-1-..-..-1*-
-0--0.11----
0---0---*-.-
----*-*---*-
----000-0-*-
1-1-.0--*-.-
---0.01-1---
----1-----1-
--0-*-----0-

Generation = 6, Population = 59.
-0-01--0--0-
-0-1.*1-001-
----10--0-.-
--*..0..1..-
-*11-***01--
00----0-.-.0
10-*.-.101.1
1-*-0*00*0.1
--10.---.-.0
-01-.0*0.---
0---.0*---.-
0---.-----*-

Generation = 8, Population = 76.
--0-.100-0*-
-*0*..*-0--1
---1**010-.0
--...-*.1**0
-***-.****--
--0-01*1.0.*
*-1*.-.1-1.1
*1.0-*--*0*1
*-**.0--*1*-
0-1-.0.-.0-1
*--0.0*0-0*-
-1--.1100-.-

*** Life<Cell> 8x9 ***

Generation = 0, Population = 10.
---------
--------0
----0----
---0-----
--0--0--0
------0--
---0-0---
----0----

Generation = 1, Population = 17.
--------0
----0--0-
-----0--0
-----0--0
-0--0--0-
--00-0-00
--0-0----
---------

*** Life<Cell> 10x10 ***

Generation = 0, Population = 10.
----------
-0--------
--0-------
---0------
----0-----
-----0----
------0---
-------0--
--0-----0-
---------0

Generation = 1, Population = 6.
-0--------
0---------
----------
----------
----------
----------
----------
--0-------
-0-0------
--0-------

*** Life<Cell> 6x7 ***

Generation = 0, Population = 8.
-------
-00----
-------
--00-0-
-0-0---
--0----

Generation = 3, Population = 22.
0-0-00-
-1*0110
0-0*0--
-011--0
0--.--0
--0---0

Generation = 6, Population = 16.
0---1--
.*.*-.*
0*..---
-1.---.
-0-*-1-
**-*00.
